{"current_page":1,"data":[{"id":60343,"user_id":10252,"parent_id":null,"content":"<p>hay qua<\/p>","is_pinned":0,"deleted_by_user_id":null,"pinned_by_user_id":null,"deleted_comment":null,"commentable_id":3899,"commentable_type":"App\\Models\\Manga","created_at":"2023-04-10 21:13:41","updated_at":"2023-04-10 21:13:41","load_more_child":0,"owner":{"id":10252,"name":"\u0110\u1ea5ng T\u1ed1i Cao","email":"kingsofsurvivalss@gmail.com","image_url":"https:\/\/truyentranhlh.net\/storage\/images\/raw\/c2b75c82-abb6-4dac-b394-3c36cd2e7be1.jpg","role":{"id":3,"name":"member","guard_name":"web","created_at":"2020-04-07 04:46:30","updated_at":"2020-04-07 04:46:30"},"current_achievement":null,"roles":[{"id":3,"name":"member","guard_name":"web","created_at":"2020-04-07 04:46:30","updated_at":"2020-04-07 04:46:30"}]},"childes":[],"deleted_by":null},{"id":49028,"user_id":13078,"parent_id":null,"content":"<p><span>cho mn chap m\u1edbi nh\u1ea5t \u1edf \u0111\u00e2y<\/span><br><span><a>https:\/\/link*1s.com\/manga_raw(b\u1ecf<\/a> d\u1ea5u *)<\/span><\/p>","is_pinned":0,"deleted_by_user_id":null,"pinned_by_user_id":null,"deleted_comment":null,"commentable_id":3899,"commentable_type":"App\\Models\\Manga","created_at":"2022-01-12 21:36:21","updated_at":"2022-01-12 21:36:21","load_more_child":0,"owner":{"id":13078,"name":"h\u01b0\u01a1ng giang","email":"tuan2032002@gmail.com","image_url":"https:\/\/truyentranhlh.net\/storage\/images\/raw\/no-avatar.png","role":{"id":3,"name":"member","guard_name":"web","created_at":"2020-04-07 04:46:30","updated_at":"2020-04-07 04:46:30"},"current_achievement":null,"roles":[{"id":3,"name":"member","guard_name":"web","created_at":"2020-04-07 04:46:30","updated_at":"2020-04-07 04:46:30"}]},"childes":[],"deleted_by":null},{"id":45511,"user_id":25174,"parent_id":null,"content":"<p>V\u1ebd c\u1ea3nh \u0111\u1eb9p m\u00e0 sao v\u1ebd ng\u01b0\u1eddi x\u1ea5u qu\u00e1<\/p>","is_pinned":0,"deleted_by_user_id":null,"pinned_by_user_id":null,"deleted_comment":null,"commentable_id":3899,"commentable_type":"App\\Models\\Manga","created_at":"2021-11-14 03:24:43","updated_at":"2021-11-14 03:24:43","load_more_child":0,"owner":{"id":25174,"name":"Yuukiyin","email":"dangmaivy2209@gmail.com","image_url":"https:\/\/truyentranhlh.net\/storage\/images\/raw\/no-avatar.png","role":{"id":3,"name":"member","guard_name":"web","created_at":"2020-04-07 04:46:30","updated_at":"2020-04-07 04:46:30"},"current_achievement":null,"roles":[{"id":3,"name":"member","guard_name":"web","created_at":"2020-04-07 04:46:30","updated_at":"2020-04-07 04:46:30"}]},"childes":[{"id":45669,"user_id":20173,"parent_id":45511,"content":"<p>V\u1ebd ng\u01b0\u1eddi kh\u00f3 vl<\/p>","is_pinned":0,"deleted_by_user_id":null,"pinned_by_user_id":null,"deleted_comment":null,"commentable_id":3899,"commentable_type":"App\\Models\\Manga","created_at":"2021-11-15 20:49:56","updated_at":"2021-11-15 20:49:56","load_more_child":0,"owner":{"id":20173,"name":"nightmare0o1","email":"son45d@gmail.com","image_url":"https:\/\/truyentranhlh.net\/storage\/images\/raw\/901ee2bc-e790-4ec9-9918-7af4eb262a71.jpg","role":{"id":3,"name":"member","guard_name":"web","created_at":"2020-04-07 04:46:30","updated_at":"2020-04-07 04:46:30"},"current_achievement":null,"roles":[{"id":3,"name":"member","guard_name":"web","created_at":"2020-04-07 04:46:30","updated_at":"2020-04-07 04:46:30"}]},"childes":[],"deleted_by":null}],"deleted_by":null},{"id":45451,"user_id":11172,"parent_id":null,"content":"<p>Qu\u00e1 hay<\/p>","is_pinned":0,"deleted_by_user_id":null,"pinned_by_user_id":null,"deleted_comment":null,"commentable_id":3899,"commentable_type":"App\\Models\\Manga","created_at":"2021-11-13 07:30:20","updated_at":"2021-11-13 07:30:20","load_more_child":0,"owner":{"id":11172,"name":"Cailon","email":"Cailon@gmail.com","image_url":"https:\/\/truyentranhlh.net\/storage\/images\/raw\/no-avatar.png","role":{"id":3,"name":"member","guard_name":"web","created_at":"2020-04-07 04:46:30","updated_at":"2020-04-07 04:46:30"},"current_achievement":null,"roles":[{"id":3,"name":"member","guard_name":"web","created_at":"2020-04-07 04:46:30","updated_at":"2020-04-07 04:46:30"}]},"childes":[],"deleted_by":null},{"id":45420,"user_id":8964,"parent_id":null,"content":"<p>r xong con ch\u00f3 r<\/p>","is_pinned":0,"deleted_by_user_id":null,"pinned_by_user_id":null,"deleted_comment":null,"commentable_id":3899,"commentable_type":"App\\Models\\Manga","created_at":"2021-11-13 02:15:33","updated_at":"2021-11-13 02:15:33","load_more_child":0,"owner":{"id":8964,"name":"minecraftvlno1","email":"minecraftvlno1@gmail.com","image_url":"https:\/\/truyentranhlh.net\/storage\/images\/raw\/df91c82c-4348-495a-bad3-0cdd1232dc05.jpg","role":{"id":3,"name":"member","guard_name":"web","created_at":"2020-04-07 04:46:30","updated_at":"2020-04-07 04:46:30"},"current_achievement":null,"roles":[{"id":3,"name":"member","guard_name":"web","created_at":"2020-04-07 04:46:30","updated_at":"2020-04-07 04:46:30"}]},"childes":[],"deleted_by":null},{"id":43813,"user_id":24728,"parent_id":null,"content":"<p>Thanks ad<\/p>","is_pinned":0,"deleted_by_user_id":null,"pinned_by_user_id":null,"deleted_comment":null,"commentable_id":3899,"commentable_type":"App\\Models\\Manga","created_at":"2021-10-25 07:03:38","updated_at":"2021-10-25 07:03:38","load_more_child":0,"owner":{"id":24728,"name":"Golden Twilight","email":"canhbeo13052005@gmail.com","image_url":"https:\/\/truyentranhlh.net\/storage\/images\/raw\/no-avatar.png","role":{"id":3,"name":"member","guard_name":"web","created_at":"2020-04-07 04:46:30","updated_at":"2020-04-07 04:46:30"},"current_achievement":null,"roles":[{"id":3,"name":"member","guard_name":"web","created_at":"2020-04-07 04:46:30","updated_at":"2020-04-07 04:46:30"}]},"childes":[],"deleted_by":null},{"id":20067,"user_id":138,"parent_id":null,"content":"<p>V\u1eady c\u00f2n Combo Blaze Lance, Evil Crystal Mass, Evil Ice blast, Doom's Jugerment g\u00ec \u0111\u00f3 v\u00e0 \u00a0sao kh\u00f4ng d\u1ecbch lu\u00f4n v\u00e0 chuy\u1ec1n sang ti\u1ebfng t\u00e0o lu\u00f4n \u0111i, \u1edf tr\u00ean \u0111\u00e3 r\u00e1ng \"t\u1eadt phong tr\u1ea3m\" (kh\u00f4ng hi\u1ec3u l\u1eafm, ch\u1eafc l\u00e0 tuy\u1ec7t chi\u00eau th\u1eb1ng qu\u00e8 ch\u00e9m gi\u00f3 ph\u1ea3i kh\u00f4ng? hay l\u00e0 ty\u1ec7t chi\u00eau \"ch\u00e9m cho qu\u00e8\" v\u00ec t\u1eadt l\u00e0 th\u1eb1ng qu\u00e8, b\u1ecb qu\u00e8, c\u00f2n ti\u1ebfng h\u00e1n(g), ti\u1ebfng t\u00e0o (lao) g\u00ec \u0111\u00f3 th\u00ec kh\u00f4ng bi\u1ebft v\u00e0 ch\u1eb3ng mu\u1ed1n bi\u1ebft). B\u1ed1i c\u1ea3nh truy\u1ec7n l\u00e0 th\u1eddi \u0111\u1ea1i ph\u1ee5c h\u01b0ng T\u00e2y \u00c2u nh\u01b0ng truy\u1ec7n n\u00e0o c\u0169ng c\u1ee9 l\u00f4i m\u1ea5y c\u00e1i t\u00ean ti\u1ebfng t\u00e0o ra \u0111\u1ecdc v\u00e0o th\u1eadt ng\u1ee9a \u0111\u00edt. N\u00f3i chung cho c\u00e1c nh\u00f3m d\u1ecbch truy\u1ec7n gi\u1edd lu\u00f4n c\u00f3 c\u00e1i b\u1ec7nh \u00a0trans l\u1ea1i c\u00f2n l\u00f4i l\u00e0 ti\u1ebfng kanji l\u00e0 ti\u1ebfng h\u00e1n(g) g\u00ec \u0111\u00f3 ra l\u00e0m l\u00fd do \u0111\u1ec3 nh\u00e9t ti\u1ebfng h\u00e1n(g) v\u00e0o. T\u00e1c gi\u1ea3 Nh\u1eadt, v\u1ebd truy\u1ec7n Nh\u1eadt, d\u00f9ng ti\u1ebfng Nh\u1eadt, trong ng\u00f4n ng\u1eef ti\u1ebfng Nh\u1eadt c\u00f3 ng\u00f4n ng\u1eef c\u00f3 t\u00ean l\u00e0 kanji (kh\u00f4ng bi\u1ebft \u0111\u00fang kh\u00f4ng v\u00ec kh\u00f4ng bi\u1ebft ti\u1ebfng Nh\u1eadt) v\u00e0 ng\u01b0\u1eddi Nh\u1eadt \u0111\u1ecdc hi\u1ec3u, c\u00f2n trans Vi\u1ec7t nam th\u00ec l\u1ea5y truy\u1ec7n Nh\u1eadt, b\u1ed1i c\u1ea3nh T\u00e2y \u00c2u, d\u1ecbcht h\u00e0nh ti\u1ebfng h\u00e1n(g) cho ng\u01b0\u1eddi Vi\u1ec7t \u0111\u1ecdc, th\u1ebf m\u1edbi vui<\/p>","is_pinned":0,"deleted_by_user_id":null,"pinned_by_user_id":null,"deleted_comment":null,"commentable_id":3899,"commentable_type":"App\\Models\\Manga","created_at":"2020-11-09 07:52:53","updated_at":"2020-11-09 07:52:53","load_more_child":4,"owner":{"id":138,"name":"eike2000","email":"eike2000@gmail.com","image_url":"https:\/\/truyentranhlh.net\/storage\/images\/raw\/63b76949-9595-4df3-8ec5-1fd7817ae940.jpg","role":{"id":3,"name":"member","guard_name":"web","created_at":"2020-04-07 04:46:30","updated_at":"2020-04-07 04:46:30"},"current_achievement":null,"roles":[{"id":3,"name":"member","guard_name":"web","created_at":"2020-04-07 04:46:30","updated_at":"2020-04-07 04:46:30"}]},"childes":[{"id":33037,"user_id":16103,"parent_id":20067,"content":"<p>\u00d4i ch\u00e0o b\u1eaft b\u1ebb l\u00e0m l\u00e0m c\u00e1i qu\u1ea7n qu\u00e8 g\u00ec, \u0111\u1ecdc free nh\u01b0 n\u00e0y th\u00ec \u0111\u1ecdc hi\u1ec3u \u0111\u01b0\u1ee3c n\u1ed9i dung l\u00e0 ok r\u1ed3i, \u00f4ng mu\u1ed1n nh\u00f3m d\u1ecbch theo \u00fd \u00f4ng th\u00ec tr\u1ea3 ti\u1ec1n cho nh\u00f3m d\u1ecbch \u0111i, c\u00f2 n\u1ebfu nh\u01b0 t\u1ea5t c\u1ea3 ng\u01b0\u1eddi \u0111\u1ecdc \u0111\u1ec1u kh\u00f3 ch\u1ecbu nh\u01b0 \u00f4ng th\u00ec h\u1ecd d\u1eebng xem, truy\u1ec7n ko c\u00f3 view th\u00ec nh\u00f3m t\u1ef1 drop, v\u1eady th\u00f4i.<\/p>","is_pinned":0,"deleted_by_user_id":null,"pinned_by_user_id":null,"deleted_comment":null,"commentable_id":3899,"commentable_type":"App\\Models\\Manga","created_at":"2021-05-29 23:11:58","updated_at":"2021-05-29 23:11:58","load_more_child":0,"owner":{"id":16103,"name":"Ho\u00e0ng L\u00ea Chu To\u00e0n C\u1ea9n","email":"hoangtoancan@gmail.com","image_url":"https:\/\/truyentranhlh.net\/storage\/images\/raw\/no-avatar.png","role":{"id":3,"name":"member","guard_name":"web","created_at":"2020-04-07 04:46:30","updated_at":"2020-04-07 04:46:30"},"current_achievement":null,"roles":[{"id":3,"name":"member","guard_name":"web","created_at":"2020-04-07 04:46:30","updated_at":"2020-04-07 04:46:30"}]},"childes":[],"deleted_by":null},{"id":27525,"user_id":21019,"parent_id":20067,"content":"<p>N\u1ebfu t\u00ednh v\u1eady th\u00ec ch\u00fang ta n\u00ean d\u1ecbch skill l\u00e0 g\u00ec ? V\u1eady th\u00ec \"Wind Sword\" \u0111\u1ec3 nguy\u00ean t\u00ean ti\u1ebfng Anh hay l\u00e0 d\u1ecbch th\u00e0nh gi\u00f3 ch\u00e9m ho\u1eb7c ch\u00e9m gi\u00f3 ??<\/p>","is_pinned":0,"deleted_by_user_id":null,"pinned_by_user_id":null,"deleted_comment":null,"commentable_id":3899,"commentable_type":"App\\Models\\Manga","created_at":"2021-03-15 18:48:18","updated_at":"2021-03-15 18:48:18","load_more_child":0,"owner":{"id":21019,"name":"LeaderLH","email":"leaderlhmanga@gmail.com","image_url":"https:\/\/truyentranhlh.net\/storage\/images\/raw\/a4b22ea5-f1bf-4df5-890c-a8d602547e29.jpg","role":{"id":1,"name":"admin","guard_name":"web","created_at":"2020-04-07 04:46:30","updated_at":"2020-04-07 04:46:30"},"current_achievement":null,"roles":[{"id":1,"name":"admin","guard_name":"web","created_at":"2020-04-07 04:46:30","updated_at":"2020-04-07 04:46:30"}]},"childes":[],"deleted_by":null}],"deleted_by":null},{"id":20058,"user_id":16202,"parent_id":null,"content":"<p>\u00d4i g\u00ec \u00f4i l\u1eafm =))<\/p>","is_pinned":0,"deleted_by_user_id":null,"pinned_by_user_id":null,"deleted_comment":null,"commentable_id":3899,"commentable_type":"App\\Models\\Manga","created_at":"2020-11-09 05:17:51","updated_at":"2020-11-09 05:17:51","load_more_child":0,"owner":{"id":16202,"name":"Yamada","email":"nguyenthanhkiet123@gmail.com","image_url":"https:\/\/truyentranhlh.net\/storage\/images\/raw\/no-avatar.png","role":{"id":3,"name":"member","guard_name":"web","created_at":"2020-04-07 04:46:30","updated_at":"2020-04-07 04:46:30"},"current_achievement":null,"roles":[{"id":3,"name":"member","guard_name":"web","created_at":"2020-04-07 04:46:30","updated_at":"2020-04-07 04:46:30"}]},"childes":[],"deleted_by":null},{"id":20055,"user_id":17019,"parent_id":null,"content":"<p>D\u1ecbch ki\u1ec3u nh\u01b0 \u0111\u1ecdc truy\u1ec7n trung qu\u1ed1c \u1ea5y<\/p>","is_pinned":0,"deleted_by_user_id":null,"pinned_by_user_id":null,"deleted_comment":null,"commentable_id":3899,"commentable_type":"App\\Models\\Manga","created_at":"2020-11-09 04:41:22","updated_at":"2020-11-09 04:41:22","load_more_child":0,"owner":{"id":17019,"name":"Ch\u1ea3 ai tin","email":"araishaito@gmail.com","image_url":"https:\/\/truyentranhlh.net\/storage\/images\/raw\/54826a9d-5319-41b2-9d18-3680a33af946.jpg","role":{"id":3,"name":"member","guard_name":"web","created_at":"2020-04-07 04:46:30","updated_at":"2020-04-07 04:46:30"},"current_achievement":null,"roles":[{"id":3,"name":"member","guard_name":"web","created_at":"2020-04-07 04:46:30","updated_at":"2020-04-07 04:46:30"}]},"childes":[],"deleted_by":null},{"id":18891,"user_id":7304,"parent_id":null,"content":"<p>S.hit h\u1ebft c\u1ea3 r\u1ed3i hzz<\/p>","is_pinned":0,"deleted_by_user_id":null,"pinned_by_user_id":null,"deleted_comment":null,"commentable_id":3899,"commentable_type":"App\\Models\\Manga","created_at":"2020-10-20 12:15:09","updated_at":"2020-10-20 12:15:09","load_more_child":0,"owner":{"id":7304,"name":"angle'death","email":"huynhthanhtrieu0197@gmail.com","image_url":"https:\/\/truyentranhlh.net\/storage\/images\/raw\/no-avatar.png","role":{"id":3,"name":"member","guard_name":"web","created_at":"2020-04-07 04:46:30","updated_at":"2020-04-07 04:46:30"},"current_achievement":null,"roles":[{"id":3,"name":"member","guard_name":"web","created_at":"2020-04-07 04:46:30","updated_at":"2020-04-07 04:46:30"}]},"childes":[],"deleted_by":null}],"first_page_url":"https:\/\/truyentranhlh.net\/action\/comments\/manga\/3899?page=1","from":1,"last_page":3,"last_page_url":"https:\/\/truyentranhlh.net\/action\/comments\/manga\/3899?page=3","next_page_url":"https:\/\/truyentranhlh.net\/action\/comments\/manga\/3899?page=2","path":"https:\/\/truyentranhlh.net\/action\/comments\/manga\/3899","per_page":10,"prev_page_url":null,"to":10,"total":25}